{
  "projectName": "chrisvaillancourt",
  "version": "3.0",
  "frontend": "javascript",
  "javascript": {
    "framework": "vue",
    "config": {
      "SourceDir": "./",
      "DistributionDir": "dist",
      "BuildCommand": "npm run generate",
      "StartCommand": "npm run start"
    }
  },
  "providers": [
    "awscloudformation"
  ]
}